Lab4/simulation/qsim/logicStep_lab4_waveform.msim.vcd
$comment
	File created using the following command:
		vcd file logicStep_lab4_waveform.msim.vcd -direction
$end
$date
	Thu Mar 27 20:21:06 2025
$end
$version
	ModelSim Version 10.5b
$end
$timescale
	1ps
$end

$scope module logicStep_lab4_waveform_top_vlg_vec_tst $end
$var reg 1 ! clkin_50 $end
$var reg 4 " pb_n [3:0] $end
$var reg 1 # rst_n $end
$var reg 8 $ sw [7:0] $end
$var wire 1 % blink_sig $end
$var wire 1 & gsolidEW $end
$var wire 1 ' gsolidNS $end
$var wire 1 ( leds [7] $end
$var wire 1 ) leds [6] $end
$var wire 1 * leds [5] $end
$var wire 1 + leds [4] $end
$var wire 1 , leds [3] $end
$var wire 1 - leds [2] $end
$var wire 1 . leds [1] $end
$var wire 1 / leds [0] $end
$var wire 1 0 rsolidEW $end
$var wire 1 1 rsolidNS $end
$var wire 1 2 seg7_char1 $end
$var wire 1 3 seg7_char2 $end
$var wire 1 4 seg7_data [6] $end
$var wire 1 5 seg7_data [5] $end
$var wire 1 6 seg7_data [4] $end
$var wire 1 7 seg7_data [3] $end
$var wire 1 8 seg7_data [2] $end
$var wire 1 9 seg7_data [1] $end
$var wire 1 : seg7_data [0] $end
$var wire 1 ; sm_clken $end
$var wire 1 < ysolidEW $end
$var wire 1 = ysolidNS $end

$scope module i1 $end
$var wire 1 > gnd $end
$var wire 1 ? vcc $end
$var wire 1 @ unknown $end
$var tri1 1 A devclrn $end
$var tri1 1 B devpor $end
$var tri1 1 C devoe $end
$var wire 1 D pb_n[2]~input_o $end
$var wire 1 E sw[1]~input_o $end
$var wire 1 F sw[2]~input_o $end
$var wire 1 G sw[3]~input_o $end
$var wire 1 H sw[4]~input_o $end
$var wire 1 I sw[5]~input_o $end
$var wire 1 J sw[6]~input_o $end
$var wire 1 K sw[7]~input_o $end
$var wire 1 L seg7_data[6]~output_o $end
$var wire 1 M leds[0]~output_o $end
$var wire 1 N leds[1]~output_o $end
$var wire 1 O leds[2]~output_o $end
$var wire 1 P leds[3]~output_o $end
$var wire 1 Q leds[4]~output_o $end
$var wire 1 R leds[5]~output_o $end
$var wire 1 S leds[6]~output_o $end
$var wire 1 T leds[7]~output_o $end
$var wire 1 U seg7_data[0]~output_o $end
$var wire 1 V seg7_data[1]~output_o $end
$var wire 1 W seg7_data[2]~output_o $end
$var wire 1 X seg7_data[3]~output_o $end
$var wire 1 Y seg7_data[4]~output_o $end
$var wire 1 Z seg7_data[5]~output_o $end
$var wire 1 [ seg7_char1~output_o $end
$var wire 1 \ seg7_char2~output_o $end
$var wire 1 ] sm_clken~output_o $end
$var wire 1 ^ blink_sig~output_o $end
$var wire 1 _ gsolidNS~output_o $end
$var wire 1 ` ysolidNS~output_o $end
$var wire 1 a rsolidNS~output_o $end
$var wire 1 b gsolidEW~output_o $end
$var wire 1 c ysolidEW~output_o $end
$var wire 1 d rsolidEW~output_o $end
$var wire 1 e clkin_50~input_o $end
$var wire 1 f rst_n~input_o $end
$var wire 1 g INST4|sreg~1_combout $end
$var wire 1 h INST4|sreg~0_combout $end
$var wire 1 i pb_n[0]~input_o $end
$var wire 1 j INST7|sreg~1_combout $end
$var wire 1 k INST7|sreg~0_combout $end
$var wire 1 l INST8|sreg~0_combout $end
$var wire 1 m INST8|sreg~q $end
$var wire 1 n INST9|current_state~42_combout $end
$var wire 1 o INST2|Add0~17_sumout $end
$var wire 1 p pb_n[3]~input_o $end
$var wire 1 q INST2|clk_divider:counter[0]~q $end
$var wire 1 r INST2|Add0~18 $end
$var wire 1 s INST2|Add0~9_sumout $end
$var wire 1 t INST2|clk_divider:counter[1]~q $end
$var wire 1 u INST2|Add0~10 $end
$var wire 1 v INST2|Add0~1_sumout $end
$var wire 1 w INST2|clk_divider:counter[2]~q $end
$var wire 1 x INST2|Add0~2 $end
$var wire 1 y INST2|Add0~13_sumout $end
$var wire 1 z INST2|clk_divider:counter[3]~q $end
$var wire 1 { INST2|Add0~14 $end
$var wire 1 | INST2|Add0~5_sumout $end
$var wire 1 } INST2|clk_divider:counter[4]~q $end
$var wire 1 ~ INST9|current_state~35_combout $end
$var wire 1 !! INST9|current_state.S7~q $end
$var wire 1 "! INST9|current_state~41_combout $end
$var wire 1 #! INST9|current_state.S8~q $end
$var wire 1 $! INST9|next_state.S9~0_combout $end
$var wire 1 %! INST9|current_state.S9~q $end
$var wire 1 &! INST9|next_state.S10~0_combout $end
$var wire 1 '! INST9|current_state.S10~q $end
$var wire 1 (! INST9|current_state~38_combout $end
$var wire 1 )! INST9|current_state.S11~q $end
$var wire 1 *! INST9|current_state~39_combout $end
$var wire 1 +! INST9|current_state.S12~q $end
$var wire 1 ,! INST9|current_state~40_combout $end
$var wire 1 -! INST9|current_state.S13~q $end
$var wire 1 .! INST9|Selector1~0_combout $end
$var wire 1 /! INST9|current_state.S14~q $end
$var wire 1 0! pb_n[1]~input_o $end
$var wire 1 1! INST5|sreg~1_combout $end
$var wire 1 2! INST5|sreg~0_combout $end
$var wire 1 3! INST6|sreg~0_combout $end
$var wire 1 4! INST6|sreg~q $end
$var wire 1 5! sw[0]~input_o $end
$var wire 1 6! INST9|current_state~43_combout $end
$var wire 1 7! INST9|current_state.S15~q $end
$var wire 1 8! INST9|next_state.S0~0_combout $end
$var wire 1 9! INST9|current_state.S0~q $end
$var wire 1 :! INST9|next_state.S1~0_combout $end
$var wire 1 ;! INST9|current_state.S1~q $end
$var wire 1 <! INST9|next_state.S2~0_combout $end
$var wire 1 =! INST9|current_state.S2~q $end
$var wire 1 >! INST9|current_state~34_combout $end
$var wire 1 ?! INST9|current_state.S3~q $end
$var wire 1 @! INST9|current_state~36_combout $end
$var wire 1 A! INST9|current_state.S4~q $end
$var wire 1 B! INST9|current_state~37_combout $end
$var wire 1 C! INST9|current_state.S5~q $end
$var wire 1 D! INST9|Selector0~0_combout $end
$var wire 1 E! INST9|current_state.S6~q $end
$var wire 1 F! INST10|clk_proc:COUNT[0]~0_combout $end
$var wire 1 G! INST10|clk_proc:COUNT[0]~q $end
$var wire 1 H! INST10|Add0~37_sumout $end
$var wire 1 I! INST10|clk_proc:COUNT[1]~q $end
$var wire 1 J! INST10|Add0~38 $end
$var wire 1 K! INST10|Add0~33_sumout $end
$var wire 1 L! INST10|clk_proc:COUNT[2]~q $end
$var wire 1 M! INST10|Add0~34 $end
$var wire 1 N! INST10|Add0~29_sumout $end
$var wire 1 O! INST10|clk_proc:COUNT[3]~q $end
$var wire 1 P! INST10|Add0~30 $end
$var wire 1 Q! INST10|Add0~25_sumout $end
$var wire 1 R! INST10|clk_proc:COUNT[4]~q $end
$var wire 1 S! INST10|Add0~26 $end
$var wire 1 T! INST10|Add0~21_sumout $end
$var wire 1 U! INST10|clk_proc:COUNT[5]~q $end
$var wire 1 V! INST10|Add0~22 $end
$var wire 1 W! INST10|Add0~17_sumout $end
$var wire 1 X! INST10|clk_proc:COUNT[6]~q $end
$var wire 1 Y! INST10|Add0~18 $end
$var wire 1 Z! INST10|Add0~13_sumout $end
$var wire 1 [! INST10|clk_proc:COUNT[7]~q $end
$var wire 1 \! INST10|Add0~14 $end
$var wire 1 ]! INST10|Add0~9_sumout $end
$var wire 1 ^! INST10|clk_proc:COUNT[8]~q $end
$var wire 1 _! INST10|Add0~10 $end
$var wire 1 `! INST10|Add0~5_sumout $end
$var wire 1 a! INST10|clk_proc:COUNT[9]~q $end
$var wire 1 b! INST10|Add0~6 $end
$var wire 1 c! INST10|Add0~1_sumout $end
$var wire 1 d! INST10|clk_proc:COUNT[10]~q $end
$var wire 1 e! INST2|blink_sig~q $end
$var wire 1 f! INST9|Selector4~1_combout $end
$var wire 1 g! INST10|DOUT_TEMP[6]~0_combout $end
$var wire 1 h! INST9|WideOr2~0_combout $end
$var wire 1 i! INST9|WideOr7~0_combout $end
$var wire 1 j! INST9|WideOr10~0_combout $end
$var wire 1 k! INST9|WideOr11~combout $end
$var wire 1 l! INST9|WideOr10~combout $end
$var wire 1 m! INST9|WideOr9~0_combout $end
$var wire 1 n! INST9|WideOr4~0_combout $end
$var wire 1 o! INST9|WideOr9~combout $end
$var wire 1 p! INST9|WideOr2~1_combout $end
$var wire 1 q! INST9|WideOr4~combout $end
$var wire 1 r! INST9|Selector4~0_combout $end
$var wire 1 s! INST9|yellowNS~0_combout $end
$var wire 1 t! INST9|WideOr4~1_combout $end
$var wire 1 u! INST10|DOUT[0]~0_combout $end
$var wire 1 v! INST9|Selector3~0_combout $end
$var wire 1 w! INST10|DOUT[3]~1_combout $end
$var wire 1 x! INST2|sm_clken~combout $end
$var wire 1 y! INST9|Selector3~1_combout $end
$var wire 1 z! INST9|Selector4~2_combout $end
$var wire 1 {! INST9|WideOr7~1_combout $end
$var wire 1 |! INST9|Selector5~0_combout $end
$var wire 1 }! INST2|clk_reg_extend [1] $end
$var wire 1 ~! INST2|clk_reg_extend [0] $end
$var wire 1 !" INST5|sreg [1] $end
$var wire 1 "" INST5|sreg [0] $end
$var wire 1 #" INST4|sreg [1] $end
$var wire 1 $" INST4|sreg [0] $end
$var wire 1 %" INST3|sreg1 [3] $end
$var wire 1 &" INST3|sreg1 [2] $end
$var wire 1 '" INST3|sreg1 [1] $end
$var wire 1 (" INST3|sreg1 [0] $end
$var wire 1 )" INST7|sreg [1] $end
$var wire 1 *" INST7|sreg [0] $end
$var wire 1 +" INST3|sreg3 [3] $end
$var wire 1 ," INST3|sreg3 [2] $end
$var wire 1 -" INST3|sreg3 [1] $end
$var wire 1 ." INST3|sreg3 [0] $end
$var wire 1 /" INST3|pb_n_filtered [3] $end
$var wire 1 0" INST3|pb_n_filtered [2] $end
$var wire 1 1" INST3|pb_n_filtered [1] $end
$var wire 1 2" INST3|pb_n_filtered [0] $end
$var wire 1 3" INST3|sreg4 [3] $end
$var wire 1 4" INST3|sreg4 [2] $end
$var wire 1 5" INST3|sreg4 [1] $end
$var wire 1 6" INST3|sreg4 [0] $end
$var wire 1 7" INST3|sreg0 [3] $end
$var wire 1 8" INST3|sreg0 [2] $end
$var wire 1 9" INST3|sreg0 [1] $end
$var wire 1 :" INST3|sreg0 [0] $end
$upscope $end
$upscope $end
$enddefinitions $end
#0
$dumpvars
0!
b1111 "
0#
bx0 $
0%
0&
0'
0/
0.
0-
0,
0+
0*
0)
0(
10
01
02
13
0:
09
08
07
06
05
04
0;
0<
0=
0>
1?
x@
1A
1B
1C
1D
xE
xF
xG
xH
xI
xJ
xK
0L
0M
0N
0O
0P
0Q
0R
0S
0T
0U
0V
0W
0X
0Y
0Z
0[
1\
0]
0^
0_
0`
0a
0b
0c
1d
0e
0f
1g
0h
1i
1j
0k
0l
0m
0n
1o
1p
0q
0r
0s
0t
0u
0v
0w
0x
0y
0z
0{
0|
0}
0~
0!!
0"!
0#!
0$!
0%!
0&!
0'!
0(!
0)!
0*!
0+!
0,!
0-!
0.!
0/!
10!
11!
02!
03!
04!
05!
06!
07!
18!
09!
1:!
0;!
0<!
0=!
0>!
0?!
0@!
0A!
0B!
0C!
0D!
0E!
1F!
0G!
0H!
0I!
0J!
0K!
0L!
0M!
0N!
0O!
0P!
0Q!
0R!
0S!
0T!
0U!
0V!
0W!
0X!
0Y!
0Z!
0[!
0\!
0]!
0^!
0_!
0`!
0a!
0b!
0c!
0d!
0e!
1f!
0g!
1h!
1i!
1j!
1k!
1l!
1m!
0n!
1o!
1p!
1q!
1r!
1s!
0t!
0u!
0v!
0w!
0x!
0y!
0z!
1{!
0|!
0~!
0}!
0""
0!"
0$"
0#"
0("
0'"
0&"
0%"
0*"
0)"
0."
0-"
0,"
0+"
z2"
z1"
z0"
1/"
06"
05"
04"
03"
0:"
09"
08"
07"
$end
#10000
1!
1e
1G!
1""
1*"
1$"
1("
1."
1:"
1h
1k
12!
1H!
0F!
#20000
0!
0e
#30000
1!
1e
1I!
0G!
1!"
1)"
1#"
1'"
1-"
19"
1~
0/"
02!
01!
0k
0j
0h
0g
1F!
#40000
0!
0e
#50000
1!
1e
1G!
0!"
0""
1q
0)"
0*"
0#"
0$"
1&"
1,"
18"
0~
1r
1J!
1g
0o
0H!
0F!
1s
1K!
#60000
0!
0e
#70000
1!
1e
1L!
0I!
0G!
1%"
1t
0q
1+"
17"
1$"
0r
1u
0J!
1M!
1h
1o
0s
1F!
0K!
0u
0M!
1s
1v
1K!
1N!
0v
0N!
#80000
0!
0e
#90000
1!
1e
1G!
1q
1#"
1~
1r
0h
0g
0o
1H!
0F!
1u
0s
1v
#100000
0!
0e
#110000
1!
1e
1I!
0G!
0t
0q
0#"
0$"
1w
0~
0r
0u
1x
1g
1o
1s
1F!
0v
0x
0s
1v
1y
0y
#120000
0!
0e
#130000
1!
1e
1G!
1q
1$"
1e!
1^
1r
1J!
1v!
1%
1h
0o
0H!
0F!
1M!
1s
0K!
1y!
1w!
1X
1_
1'
17
1N!
#140000
0!
0e
#150000
1!
1e
1O!
0L!
0I!
0G!
1t
0q
1#"
1~
0r
1u
0J!
0M!
1P!
0h
0g
1o
0s
1F!
1K!
0N!
0u
1x
0P!
1s
0v
0K!
1N!
1Q!
0x
1v
1y
0Q!
0y
#160000
0!
0e
#170000
1!
1e
1G!
1q
0#"
0$"
0~
1r
1g
0o
1H!
0F!
1u
0s
1x
0v
1y
#180000
0!
0e
#190000
1!
1e
1I!
0G!
1z
0t
0q
1$"
0w
0r
0u
1{
0x
1h
1o
1s
0y
1F!
1v
0{
0s
0v
1|
1y
0|
#200000
0!
0e
#210000
1!
1e
1G!
1q
1#"
0e!
0^
1~
1r
1J!
0v!
0%
0h
0g
0o
0H!
0F!
1s
1K!
0y!
0w!
0X
0_
0'
07
#220000
0!
0e
#230000
1!
1e
1L!
0I!
0G!
1t
0q
0#"
0$"
0~
0r
1u
0J!
1M!
1g
1o
0s
1F!
0K!
0u
0M!
1P!
1s
1v
1K!
0N!
0P!
0v
1N!
1Q!
0Q!
#240000
0!
0e
#250000
1!
1e
1G!
1q
1$"
1r
1h
0o
1H!
0F!
1u
0s
1v
#260000
0!
0e
#270000
1!
1e
1I!
0G!
0t
0q
1#"
1w
1~
0r
0u
1x
0h
0g
1o
1s
1F!
0v
0x
1{
0s
1v
0y
0{
1y
1|
0|
#280000
0!
0e
#290000
1!
1e
1G!
1q
0#"
0$"
1e!
1^
0~
1r
1J!
1v!
1%
1g
0o
0H!
0F!
1M!
1s
0K!
1y!
1w!
1X
1_
1P!
1'
17
0N!
1Q!
#300000
0!
0e
#310000
1!
1e
1R!
0O!
0L!
0I!
0G!
1t
0q
1$"
0r
1u
0J!
0M!
0P!
1S!
1h
1o
0s
1F!
1K!
1N!
0Q!
0u
1x
0S!
1s
0v
0K!
0N!
1Q!
1T!
0x
1{
1v
0y
0T!
0{
1y
1|
0|
#320000
1#
0!
1f
0e
#330000
1!
1e
1G!
1q
1#"
16"
1~
1r
0h
0g
0o
1H!
0F!
1u
0s
1x
0v
1{
0y
1|
#340000
0!
0e
#350000
1!
1e
1I!
0G!
0z
0t
0q
0#"
0$"
1}
0w
15"
0~
0r
0u
0{
0x
1o
1s
1y
1F!
1v
0|
0s
0v
1|
0y
#360000
0!
0e
#370000
1!
1e
1G!
1q
0e!
1~!
14"
0^
1r
1J!
1~
0v!
0%
0o
0H!
0F!
1x!
1]
1;
1s
1K!
0y!
0w!
0X
0_
0'
07
#380000
0!
0e
#390000
1!
1e
1L!
0I!
0G!
1;!
19!
1}!
1t
0q
13"
0r
1u
0~
0k!
0J!
1M!
1o
0s
0x!
0:!
1<!
1F!
0K!
0]
1Q
0u
0M!
1+
0;
1s
1v
1K!
1N!
0v
0N!
#400000
0!
0e
#410000
1!
1e
1G!
1q
1r
0o
1H!
0F!
1u
0s
1v
#420000
0!
0e
#430000
1!
1e
1I!
0G!
0t
0q
1w
0r
0u
1x
1o
1s
1F!
0v
0x
0s
1v
1y
0y
#440000
0!
0e
#450000
1!
1e
1G!
1q
1e!
1^
1r
1J!
1v!
1%
0o
0H!
0F!
1M!
1s
0K!
1y!
1w!
1X
1_
1'
17
1N!
#460000
0!
0e
#470000
1!
1e
1O!
0L!
0I!
0G!
1t
0q
0r
1u
0J!
0M!
1P!
1o
0s
1F!
1K!
0N!
0u
1x
0P!
1S!
1s
0v
0K!
1N!
0Q!
0x
0S!
1v
1y
1Q!
1T!
0y
0T!
#480000
0!
0e
#490000
1!
1e
1G!
1q
1r
0o
1H!
0F!
1u
0s
1x
0v
1y
#500000
0!
0e
#510000
1!
1e
1I!
0G!
1z
0t
0q
0w
0r
0u
1{
0x
1o
1s
0y
1F!
1v
0{
0s
0v
0|
1y
1|
#520000
0!
0e
#530000
1!
1e
1G!
1q
0e!
0^
1r
1J!
0v!
0%
0o
0H!
0F!
1s
1K!
0y!
0w!
0X
0_
0'
07
#540000
0!
0e
#550000
1!
1e
1L!
0I!
0G!
1t
0q
0r
1u
0J!
1M!
1o
0s
1F!
0K!
0u
0M!
1P!
1s
1v
1K!
0N!
0P!
1S!
0v
1N!
0Q!
0S!
1Q!
1T!
0T!
#560000
0!
0e
#570000
1!
1e
1G!
1q
1r
0o
1H!
0F!
1u
0s
1v
#580000
0!
0e
#590000
1!
1e
1I!
0G!
0t
0q
1w
0r
0u
1x
1o
1s
1F!
0v
0x
1{
0s
1v
0y
0{
1y
0|
1|
#600000
0!
0e
#610000
1!
1e
1G!
1q
1e!
1^
1r
1J!
1v!
1%
0o
0H!
0F!
1M!
1s
0K!
1y!
1w!
1X
1_
1P!
1'
17
0N!
1S!
0Q!
1T!
#620000
0!
0e
#630000
1!
1e
1U!
0R!
0O!
0L!
0I!
0G!
1t
0q
0r
1u
0J!
0M!
0P!
0S!
1V!
1o
0s
1F!
1K!
1N!
1Q!
0T!
0u
1x
0V!
1s
0v
0K!
0N!
0Q!
1T!
1W!
0x
1{
1v
0y
0W!
0{
1y
0|
1|
#640000
0!
0e
#650000
1!
1e
1G!
1q
1r
0o
1H!
0F!
1u
0s
1x
0v
1{
0y
0|
#660000
0!
0e
#670000
1!
1e
1I!
0G!
0z
0t
0q
0}
0w
0r
0u
0{
0x
1o
1s
1y
1F!
1v
1|
0s
0v
0|
0y
#680000
0!
0e
#690000
1!
1e
1G!
1q
0e!
0~!
0^
1r
1J!
0v!
0%
0o
0H!
0F!
1s
1K!
0y!
0w!
0X
0_
0'
07
#700000
0!
0e
#710000
1!
1e
1L!
0I!
0G!
0}!
1t
0q
0r
1u
0J!
1M!
1o
0s
1F!
0K!
0u
0M!
1s
1v
1K!
1N!
0v
0N!
#720000
0!
0e
#730000
1!
1e
1G!
1q
1r
0o
1H!
0F!
1u
0s
1v
#740000
0!
0e
#750000
1!
1e
1I!
0G!
0t
0q
1w
0r
0u
1x
1o
1s
1F!
0v
0x
0s
1v
1y
0y
#760000
0!
0e
#770000
1!
1e
1G!
1q
1e!
1^
1r
1J!
1v!
1%
0o
0H!
0F!
1M!
1s
0K!
1y!
1w!
1X
1_
1'
17
1N!
#780000
0!
0e
#790000
1!
1e
1O!
0L!
0I!
0G!
1t
0q
0r
1u
0J!
0M!
1P!
1o
0s
1F!
1K!
0N!
0u
1x
0P!
1s
0v
0K!
1N!
1Q!
0x
1v
1y
0Q!
0y
#800000
0!
0e
#810000
1!
1e
1G!
1q
1r
0o
1H!
0F!
1u
0s
1x
0v
1y
#820000
0!
0e
#830000
1!
1e
1I!
0G!
1z
0t
0q
0w
0r
0u
1{
0x
1o
1s
0y
1F!
1v
0{
0s
0v
1|
1y
0|
#840000
0!
0e
#850000
1!
1e
1G!
1q
0e!
0^
1r
1J!
0v!
0%
0o
0H!
0F!
1s
1K!
0y!
0w!
0X
0_
0'
07
#860000
0!
0e
#870000
1!
1e
1L!
0I!
0G!
1t
0q
0r
1u
0J!
1M!
1o
0s
1F!
0K!
0u
0M!
1P!
1s
1v
1K!
0N!
0P!
0v
1N!
1Q!
0Q!
#880000
0!
0e
#890000
1!
1e
1G!
1q
1r
0o
1H!
0F!
1u
0s
1v
#900000
0!
0e
#910000
1!
1e
1I!
0G!
0t
0q
1w
0r
0u
1x
1o
1s
1F!
0v
0x
1{
0s
1v
0y
0{
1y
1|
0|
#920000
0!
0e
#930000
1!
1e
1G!
1q
1e!
1^
1r
1J!
1v!
1%
0o
0H!
0F!
1M!
1s
0K!
1y!
1w!
1X
1_
1P!
1'
17
0N!
1Q!
#940000
0!
0e
#950000
1!
1e
1R!
0O!
0L!
0I!
0G!
1t
0q
0r
1u
0J!
0M!
0P!
1S!
1o
0s
1F!
1K!
1N!
0Q!
0u
1x
0S!
1V!
1s
0v
0K!
0N!
1Q!
0T!
0x
1{
0V!
1v
0y
1T!
1W!
0{
1y
1|
0W!
0|
#960000
0!
0e
#970000
1!
1e
1G!
1q
1r
0o
1H!
0F!
1u
0s
1x
0v
1{
0y
1|
#980000
0!
0e
#990000
1!
1e
1I!
0G!
0z
0t
0q
1}
0w
0r
0u
0{
0x
1o
1s
1y
1F!
1v
0|
0s
0v
1|
0y
#1000000
0!
0e
#1010000
1!
1e
1G!
1q
0e!
1~!
0^
1r
1J!
1~
0v!
0%
0o
0H!
0F!
1x!
1]
1;
1s
1K!
0y!
0w!
0X
0_
0'
07
#1020000
0!
0e
#1030000
1!
1e
1L!
0I!
0G!
1=!
0;!
1}!
1t
0q
0r
1u
0~
1n!
0l!
0m!
1k!
0h!
0J!
1M!
1o
0s
0x!
0<!
1y!
1>!
1F!
0K!
1_
0]
1M
0Q
1R
0u
0M!
1*
0+
1/
0;
1'
1s
1v
1K!
1N!
1w!
1X
17
0v
0N!
#1040000
0!
0e
#1050000
1!
1e
1G!
1q
1r
0o
1H!
0F!
1u
0s
1v
#1060000
0!
0e
#1070000
1!
1e
1I!
0G!
0t
0q
1w
0r
0u
1x
1o
1s
1F!
0v
0x
0s
1v
1y
0y
#1080000
0!
0e
#1090000
1!
1e
1G!
1q
1e!
1^
1r
1J!
1%
0o
0H!
0F!
1M!
1s
0K!
1N!
#1100000
0!
0e
#1110000
1!
1e
1O!
0L!
0I!
0G!
1t
0q
0r
1u
0J!
0M!
1P!
1o
0s
1F!
1K!
0N!
0u
1x
0P!
1S!
1s
0v
0K!
1N!
0Q!
0x
0S!
1V!
1v
1y
1Q!
0T!
0V!
0y
1T!
1W!
0W!
#1120000
0!
0e
#1130000
1!
1e
1G!
1q
1r
0o
1H!
0F!
1u
0s
1x
0v
1y
#1140000
0!
0e
#1150000
1!
1e
1I!
0G!
1z
0t
0q
0w
0r
0u
1{
0x
1o
1s
0y
1F!
1v
0{
0s
0v
0|
1y
1|
#1160000
0!
0e
#1170000
1!
1e
1G!
1q
0e!
0^
1r
1J!
0%
0o
0H!
0F!
1s
1K!
#1180000
0!
0e
#1190000
1!
1e
1L!
0I!
0G!
1t
0q
0r
1u
0J!
1M!
1o
0s
1F!
0K!
0u
0M!
1P!
1s
1v
1K!
0N!
0P!
1S!
0v
1N!
0Q!
0S!
1V!
1Q!
0T!
0V!
1T!
1W!
0W!
#1200000
0!
0e
#1210000
1!
1e
1G!
1q
1r
0o
1H!
0F!
1u
0s
1v
#1220000
0!
0e
#1230000
1!
1e
1I!
0G!
0t
0q
1w
0r
0u
1x
1o
1s
1F!
0v
0x
1{
0s
1v
0y
0{
1y
0|
1|
#1240000
0!
0e
#1250000
1!
1e
1G!
1q
1e!
1^
1r
1J!
1%
0o
0H!
0F!
1M!
1s
0K!
1P!
0N!
1S!
0Q!
1V!
0T!
1W!
#1260000
0!
0e
#1270000
1!
1e
1X!
0U!
0R!
0O!
0L!
0I!
0G!
1t
0q
0r
1u
0J!
0M!
0P!
0S!
0V!
1Y!
1o
0s
1F!
1K!
1N!
1Q!
1T!
0W!
0u
1x
0Y!
1s
0v
0K!
0N!
0Q!
0T!
1W!
1Z!
0x
1{
1v
0y
0Z!
0{
1y
0|
1|
#1280000
0!
0e
#1290000
1!
1e
1G!
1q
1r
0o
1H!
0F!
1u
0s
1x
0v
1{
0y
0|
#1300000
0!
0e
#1310000
1!
1e
1I!
0G!
0z
0t
0q
0}
0w
0r
0u
0{
0x
1o
1s
1y
1F!
1v
1|
0s
0v
0|
0y
#1320000
0!
0e
#1330000
1!
1e
1G!
1q
0e!
0~!
0^
1r
1J!
0%
0o
0H!
0F!
1s
1K!
#1340000
0!
0e
#1350000
1!
1e
1L!
0I!
0G!
0}!
1t
0q
0r
1u
0J!
1M!
1o
0s
1F!
0K!
0u
0M!
1s
1v
1K!
1N!
0v
0N!
#1360000
0!
0e
#1370000
1!
1e
1G!
1q
1r
0o
1H!
0F!
1u
0s
1v
#1380000
0!
0e
#1390000
1!
1e
1I!
0G!
0t
0q
1w
0r
0u
1x
1o
1s
1F!
0v
0x
0s
1v
1y
0y
#1400000
0!
0e
#1410000
1!
1e
1G!
1q
1e!
1^
1r
1J!
1%
0o
0H!
0F!
1M!
1s
0K!
1N!
#1420000
0!
0e
#1430000
1!
1e
1O!
0L!
0I!
0G!
1t
0q
0r
1u
0J!
0M!
1P!
1o
0s
1F!
1K!
0N!
0u
1x
0P!
1s
0v
0K!
1N!
1Q!
0x
1v
1y
0Q!
0y
#1440000
0!
0e
#1450000
1!
1e
1G!
1q
1r
0o
1H!
0F!
1u
0s
1x
0v
1y
#1460000
0!
0e
#1470000
1!
1e
1I!
0G!
1z
0t
0q
0w
0r
0u
1{
0x
1o
1s
0y
1F!
1v
0{
0s
0v
1|
1y
0|
#1480000
0!
0e
#1490000
1!
1e
1G!
1q
0e!
0^
1r
1J!
0%
0o
0H!
0F!
1s
1K!
#1500000
0!
0e
#1510000
1!
1e
1L!
0I!
0G!
1t
0q
0r
1u
0J!
1M!
1o
0s
1F!
0K!
0u
0M!
1P!
1s
1v
1K!
0N!
0P!
0v
1N!
1Q!
0Q!
#1520000
0!
0e
#1530000
1!
1e
1G!
1q
1r
0o
1H!
0F!
1u
0s
1v
#1540000
0!
0e
#1550000
1!
1e
1I!
0G!
0t
0q
1w
0r
0u
1x
1o
1s
1F!
0v
0x
1{
0s
1v
0y
0{
1y
1|
0|
#1560000
0!
0e
#1570000
1!
1e
1G!
1q
1e!
1^
1r
1J!
1%
0o
0H!
0F!
1M!
1s
0K!
1P!
0N!
1Q!
#1580000
0!
0e
#1590000
1!
1e
1R!
0O!
0L!
0I!
0G!
1t
0q
0r
1u
0J!
0M!
0P!
1S!
1o
0s
1F!
1K!
1N!
0Q!
0u
1x
0S!
1s
0v
0K!
0N!
1Q!
1T!
0x
1{
1v
0y
0T!
0{
1y
1|
0|
#1600000
0!
0e
#1610000
1!
1e
1G!
1q
1r
0o
1H!
0F!
1u
0s
1x
0v
1{
0y
1|
#1620000
0!
0e
#1630000
1!
1e
1I!
0G!
0z
0t
0q
1}
0w
0r
0u
0{
0x
1o
1s
1y
1F!
1v
0|
0s
0v
1|
0y
#1640000
0!
0e
#1650000
1!
1e
1G!
1q
0e!
1~!
0^
1r
1J!
1~
0%
0o
0H!
0F!
1x!
1]
1;
1s
1K!
#1660000
0!
0e
#1670000
1!
1e
1L!
0I!
0G!
1?!
0=!
1}!
1t
0q
0r
1u
0~
1m!
0k!
0p!
0J!
1M!
1o
0s
0x!
0q!
0>!
1@!
1F!
0K!
1T
0d
0]
1Q
0u
0M!
1+
0;
00
1(
1s
1v
1K!
1N!
1q!
0T
1d
10
0(
0v
0N!
#1680000
0!
0e
#1690000
1!
1e
1G!
1q
1r
0o
1H!
0F!
1u
0s
1v
#1700000
0!
0e
#1710000
1!
1e
1I!
0G!
0t
0q
1w
0r
0u
1x
1o
1s
1F!
0v
0x
0s
1v
1y
0y
#1720000
0!
0e
#1730000
1!
1e
1G!
1q
1e!
1^
1r
1J!
1%
0o
0H!
0F!
1M!
1s
0K!
1N!
#1740000
0!
0e
#1750000
1!
1e
1O!
0L!
0I!
0G!
1t
0q
0r
1u
0J!
0M!
1P!
1o
0s
1F!
1K!
0N!
0u
1x
0P!
1S!
1s
0v
0K!
1N!
0Q!
0x
0S!
1v
1y
1Q!
1T!
0y
0T!
#1760000
0!
0e
#1770000
1!
1e
1G!
1q
1r
0o
1H!
0F!
1u
0s
1x
0v
1y
#1780000
0!
0e
#1790000
1!
1e
1I!
0G!
1z
0t
0q
0w
0r
0u
1{
0x
1o
1s
0y
1F!
1v
0{
0s
0v
0|
1y
1|
#1800000
0!
0e
#1810000
1!
1e
1G!
1q
0e!
0^
1r
1J!
0%
0o
0H!
0F!
1s
1K!
#1820000
0!
0e
#1830000
1!
1e
1L!
0I!
0G!
1t
0q
0r
1u
0J!
1M!
1o
0s
1F!
0K!
0u
0M!
1P!
1s
1v
1K!
0N!
0P!
1S!
0v
1N!
0Q!
0S!
1Q!
1T!
0T!
#1840000
0!
0e
#1850000
1!
1e
1G!
1q
1r
0o
1H!
0F!
1u
0s
1v
#1860000
0!
0e
#1870000
1!
1e
1I!
0G!
0t
0q
1w
0r
0u
1x
1o
1s
1F!
0v
0x
1{
0s
1v
0y
0{
1y
0|
1|
#1880000
0!
0e
#1890000
1!
1e
1G!
1q
1e!
1^
1r
1J!
1%
0o
0H!
0F!
1M!
1s
0K!
1P!
0N!
1S!
0Q!
1T!
#1900000
0!
0e
#1910000
1!
1e
1U!
0R!
0O!
0L!
0I!
0G!
1t
0q
0r
1u
0J!
0M!
0P!
0S!
1V!
1o
0s
1F!
1K!
1N!
1Q!
0T!
0u
1x
0V!
1Y!
1s
0v
0K!
0N!
0Q!
1T!
0W!
0x
1{
0Y!
1v
0y
1W!
1Z!
0{
1y
0|
0Z!
1|
#1920000
0!
0e
#1930000
1!
1e
1G!
1q
1r
0o
1H!
0F!
1u
0s
1x
0v
1{
0y
0|
#1940000
0!
0e
